<?xml version="1.0" encoding="utf-8"?>
<!-- Generator: Adobe Illustrator 16.0.0, SVG Export Plug-In . SVG Version: 6.00 Build 0)  -->
<!DOCTYPE svg PUBLIC "-//W3C//DTD SVG 1.1//EN" "http://www.w3.org/Graphics/SVG/1.1/DTD/svg11.dtd">
<svg version="1.1" id="Layer_1" xmlns="http://www.w3.org/2000/svg" xmlns:xlink="http://www.w3.org/1999/xlink" x="0px" y="0px"
	 width="472px" height="61.5px" viewBox="-0.25 23.749 472 61.5" enable-background="new -0.25 23.749 472 61.5"
	 xml:space="preserve">
<g>
	<g>
		<path fill="#FFFFFF" d="M451.641,24.374h-10.073L421.46,83.348h9.561c-0.013-0.001,4.357-13.931,4.357-13.931h22.463l4.343,13.939
			l9.566,0.012L451.641,24.374z M437.727,61.98l8.792-28.263h0.129l8.809,28.274L437.727,61.98z"/>
		<path fill="#FFFFFF" d="M32.755,27.111c0,0-0.188,0.557-2.833,7.962c-7.557-6.214-20.224-5.759-20.224,3.798
			c0,11.209,26.453,9.802,25.63,29.813C34.669,84.755,15.511,88.443,0.73,80.703c1.293-2.833,2.634-5.562,3.552-7.798
			c11.176,6.822,20.798,3.694,22.379-1.793C30.983,56.097,0.85,60.735,0.85,39.444C0.85,30.487,10.892,16.566,32.755,27.111z"/>
		<path fill="#FFFFFF" d="M63.375,24.411h36.921l-0.01,7.824c-4.042,0-27.699,0-27.699,0v16.043h19.625c0,0,0,5.744,0,7.394
			c-3.325,0-19.625-0.004-19.625-0.004v19.97h27.672v7.675c-5.398,0-36.892,0-36.892,0L63.375,24.411z"/>
		<polygon fill="#FFFFFF" points="236.546,48.293 236.546,24.446 245.557,24.446 245.557,83.372 236.546,83.372 236.546,55.668 
			206.514,55.668 206.514,83.372 197.51,83.372 197.51,24.446 206.514,24.446 206.514,48.293 		"/>
		<path fill="#FFFFFF" d="M302.468,23.053c-17.06,0-30.893,13.834-30.893,30.895c0,17.063,13.833,30.898,30.893,30.898
			c17.065,0,30.897-13.835,30.897-30.898C333.364,36.887,319.531,23.053,302.468,23.053z M302.468,76.729
			c-12.035,0-21.798-10.198-21.798-22.781c0-12.582,9.761-22.782,21.798-22.782c12.04,0,21.801,10.2,21.801,22.782
			C324.267,66.53,314.508,76.729,302.468,76.729z"/>
		<path fill="#FFFFFF" d="M148.155,24.308c-3.391,0-10.156,0.002-15.965,0.002l0.022,59h9.198c0,0,0.008-11.284,0.005-22.387
			c0,0,7.584,0.034,10.126-0.181c8.256-0.706,20.282-2.829,20.282-19.01C171.823,23.57,151.509,24.308,148.155,24.308z
			 M147.802,53.535c-2.807,0.007-4.08,0.007-6.385,0c0.003-11.009,0-21.78,0-21.78l5.464-0.011c2.393,0,16.355-0.721,16.742,10.068
			C164.011,52.666,152.957,53.524,147.802,53.535z"/>
		<path fill="#FFFFFF" d="M405.49,83.524l-17.164-24.394c5.856-2.099,10.985-6.667,10.985-17.232
			c0-18.165-20.312-17.427-23.665-17.427c-3.391,0-10.159,0.001-15.967,0.001l0.022,59.001h9.199c0,0,0.011-11.283,0.004-22.385
			c0,0,7.588,0.034,10.125-0.184c0.043-0.001,0.089-0.007,0.129-0.01l15.19,22.624h11.141V83.524z M368.902,53.698
			c0.007-11.009,0-21.779,0-21.779l5.467-0.013c2.392,0,16.353-0.721,16.743,10.067c0.388,10.854-10.667,11.713-15.821,11.724
			C372.483,53.704,371.208,53.704,368.902,53.698z"/>
	</g>
</g>
</svg>
