<?xml version="1.0" encoding="utf-8"?>
<!-- Generator: Adobe Illustrator 16.0.0, SVG Export Plug-In . SVG Version: 6.00 Build 0)  -->
<!DOCTYPE svg PUBLIC "-//W3C//DTD SVG 1.1//EN" "http://www.w3.org/Graphics/SVG/1.1/DTD/svg11.dtd">
<svg version="1.1" id="Layer_1" xmlns="http://www.w3.org/2000/svg" xmlns:xlink="http://www.w3.org/1999/xlink" x="0px" y="0px"
	 width="284.27px" height="203.371px" viewBox="0 0 284.27 203.371" enable-background="new 0 0 284.27 203.371"
	 xml:space="preserve">
<g>
	<path stroke="#000000" stroke-miterlimit="10" d="M141.155,78.84l-7.403,26.316c-1.747,6.079-3.019,6.28-4.47,6.28
		c-2.079,0-3.114-3.021-3.954-5.3l-0.01-0.002l-5.599-16.259l-0.251-0.671l-3.641-10.365H110l10.813,30.724
		c1.168,3.229,2.187,8.253,5.983,8.253c2.625,0,4.007-1.261,5.316-5.74l9.333-33.236H141.155z"/>
	<path stroke="#000000" stroke-miterlimit="10" d="M144.016,117.551V78.84h5.738v38.711H144.016z"/>
	<path stroke="#000000" stroke-miterlimit="10" d="M152.964,78.84h9.999c10.633,0,15.638,2.698,15.638,9.742
		c0,5.927-5.717,7.447-9.354,8.002l0,0c4.334,0.288,11.861,2.854,11.861,10.576c0,6.684-5.201,10.391-12.302,10.391h-15.843V78.84z
		 M158.707,96.532h6.975c6.743,0,7.816-2.922,7.816-7.696c0-5.929-2.291-9.731-11.27-9.731h-3.521V96.532z M158.707,117.29h6.686
		c7.935,0,10.278-4.398,10.278-9.95c0-5.252-1.335-10.546-9.214-10.546h-7.75V117.29z"/>
</g>
</svg>
